{
    "name":"ziptax.cfc",
    "version":"0.1.0",
    "author":"Michael Born <mborn319@gmail.com>",
    "location":"https://bitbucket.org/mborn319/ziptax/get/v0.1.0.zip",
    "homepage":"https://bitbucket.org/mborn319/ziptax/",
    "documentation":"",
    "repository":{
        "type":"",
        "URL":""
    },
    "bugs":"",
    "slug":"ziptaxcfc",
    "shortDescription":"A CFML wrapper for the ZipTax API",
    "description":"",
    "instructions":"",
    "changelog":"",
    "type":"modules",
    "keywords":"ziptax,api,tax,ecommerce",
    "private":false,
    "projectURL":"",
    "license":[
        {
            "type":"",
            "URL":""
        }
    ],
    "contributors":[
        
    ],
    "dependencies":{
        
    },
    "devDependencies":{
        
    },
    "installPaths":{
        
    },
    "scripts":{
        
    },
    "ignore":[
        "**/.*",
        "test",
        "tests"
    ],
    "testbox":{
        "runner":[
            {
                "default":""
            }
        ],
        "labels":"",
        "reporter":"",
        "bundles":"",
        "recurse":true,
        "directory":"tests.specs",
        "testBundles":"",
        "testSuites":"",
        "testSpecs":"",
        "verbose":true,
        "watchDelay":500,
        "watchPaths":"**.cfc"
    }
}
